<?xml version="1.0" encoding="utf-8"?>
<!-- Generator: Adobe Illustrator 16.0.0, SVG Export Plug-In . SVG Version: 6.00 Build 0)  -->
<!DOCTYPE svg PUBLIC "-//W3C//DTD SVG 1.1//EN" "http://www.w3.org/Graphics/SVG/1.1/DTD/svg11.dtd">
<svg version="1.1" id="Layer_1" xmlns="http://www.w3.org/2000/svg" xmlns:xlink="http://www.w3.org/1999/xlink" x="0px" y="0px"
	 width="24px" height="24px" viewBox="0 0 24 24" enable-background="new 0 0 24 24" xml:space="preserve">
<g>
	<path fill="#3C658D" d="M20.483,3.51C18.149,1.176,15.295-0.008,12-0.008S5.849,1.176,3.516,3.51C1.183,5.844,0,8.699,0,11.996
		s1.183,6.152,3.517,8.486C5.849,22.816,8.704,24,12,24c1.81,0,3.498-0.356,5.021-1.063c0.423-0.2,0.819-0.415,1.213-0.657
		c0.797-0.497,1.554-1.103,2.249-1.798C22.817,18.147,24,15.293,24,11.996S22.817,5.845,20.483,3.51z M19.987,19.986
		c-0.658,0.658-1.372,1.229-2.122,1.697c-0.37,0.229-0.745,0.431-1.142,0.619c-1.447,0.67-2.992,0.996-4.724,0.996
		c-3.104,0-5.791-1.114-7.988-3.313c-2.197-2.197-3.311-4.886-3.311-7.99s1.114-5.793,3.311-7.991C6.208,1.808,8.896,0.693,12,0.693
		c3.103,0,5.79,1.114,7.987,3.312c2.197,2.199,3.312,4.888,3.312,7.991S22.184,17.788,19.987,19.986z M16.93,5.504H7.357
		c-0.085,0-0.179,0.008-0.279,0.022c-0.001,0-0.001,0-0.002,0s-0.002,0-0.003,0.001c-0.005,0-0.01,0-0.016,0.001
		C7.047,5.529,7.04,5.535,7.03,5.537C7.011,5.54,6.997,5.548,6.979,5.55C6.976,5.551,6.973,5.551,6.97,5.553
		c-0.872,0.125-1.361,0.715-1.361,1.7v9.576c0,1.128,0.621,1.749,1.748,1.749h9.573c1.127,0,1.748-0.621,1.748-1.749V7.253
		C18.678,6.125,18.057,5.504,16.93,5.504z M17.977,16.829c0,0.734-0.313,1.048-1.047,1.048H7.357c-0.734,0-1.047-0.313-1.047-1.048
		V7.253c0-0.571,0.194-0.82,0.447-0.936v2.104c0,0.194,0.157,0.351,0.35,0.351c0.194,0,0.351-0.156,0.351-0.351V6.205h0.128v2.216
		c0,0.194,0.157,0.351,0.351,0.351s0.351-0.156,0.351-0.351V6.205h0.117v2.216c0,0.194,0.157,0.351,0.351,0.351
		c0.194,0,0.351-0.156,0.351-0.351V6.205h7.825c0.734,0,1.047,0.313,1.047,1.048V16.829z M14.643,9.552
		c-0.703-0.704-1.56-1.062-2.544-1.062c-0.988,0-1.842,0.357-2.534,1.062c-0.583,0.583-0.929,1.28-1.03,2.088
		c-0.011,0.139-0.021,0.287-0.021,0.442c-0.011,0.987,0.343,1.842,1.051,2.538c0.697,0.698,1.551,1.052,2.534,1.052
		c0.979,0,1.835-0.353,2.544-1.052c0.697-0.697,1.051-1.55,1.051-2.558l-0.033-0.439C15.561,10.824,15.219,10.127,14.643,9.552z
		 M14.149,14.123c-0.571,0.563-1.261,0.848-2.05,0.848c-0.792,0-1.478-0.284-2.041-0.848c-0.568-0.56-0.852-1.244-0.843-2.037
		c0-0.141,0.009-0.271,0.017-0.376c0.08-0.642,0.351-1.186,0.83-1.665c0.557-0.566,1.243-0.854,2.037-0.854
		c0.803,0,1.473,0.279,2.048,0.856c0.471,0.47,0.738,1.013,0.816,1.645l0.029,0.394C14.993,12.877,14.708,13.563,14.149,14.123z
		 M12.129,9.598l-0.034,0.001l-0.047-0.001c-0.67,0-1.248,0.244-1.714,0.723c-0.486,0.485-0.732,1.08-0.732,1.766
		c0,0.101,0.01,0.2,0.022,0.307c0.058,0.541,0.303,1.043,0.71,1.449c0.478,0.479,1.068,0.722,1.754,0.722
		c0.675,0,1.264-0.241,1.756-0.722c0.406-0.407,0.652-0.908,0.71-1.449c0.011-0.102,0.021-0.204,0.021-0.307
		c0-0.687-0.246-1.28-0.731-1.766C13.366,9.841,12.788,9.598,12.129,9.598z M13.857,12.318c-0.041,0.386-0.212,0.731-0.505,1.024
		c-0.358,0.35-0.771,0.52-1.264,0.52s-0.916-0.174-1.259-0.517c-0.296-0.296-0.468-0.642-0.509-1.036
		c-0.009-0.074-0.018-0.148-0.018-0.224c0-0.5,0.172-0.916,0.529-1.272c0.332-0.342,0.742-0.515,1.216-0.515l0.047,0.001
		l0.034-0.001c0.473,0,0.871,0.17,1.219,0.518c0.354,0.354,0.526,0.769,0.526,1.27C13.875,12.163,13.866,12.24,13.857,12.318z"/>
</g>
</svg>
